…
Keys o campos llave

A las variables utilizadas para conectar dos o mas tablas se les llama keys o campos llave. Un campo llave es una variable que identifica de manera unica una observación dentro de una tabla (ejemplo: el CURP). En el caso de nycflights13, la tabla planes identifica cada avión con su número de matricula. Existen 2 tipos de llaves:

Primary Key: identifica de manera única cada observación. Por ejemplo planes$tailnum

Foreign Key: utilizada para identificar una observación en otra tabla. Por ejemplo flights$tailnum

Una vez que se ha identificado el campo llave, una buena práctica es verificar que se unica para cada observación. Esto podemos hacerlos mediante el comando count() y mirar las entradas en donde n > 1:

planes %>%
  count(tailnum)

# A tibble: 3,322 x 2
   tailnum     n
   <chr>   <int>
 1 N10156      1
 2 N102UW      1
 3 N103US      1
 4 N104UW      1
 5 N10575      1
 6 N105UW      1
 7 N107US      1
 8 N108UW      1
 9 N109UW      1
10 N110UW      1
# ... with 3,312 more rows
…
# A tibble: 0 x 2
# ... with 2 variables: tailnum <chr>, n <int>

Nuestro campo llave es unico.

cuál es el campo llave e la tabla flights?

flights %>%
count(year, month, day, flight) %>%
filter(n > 1)

# A tibble: 29,768 x 5
    year month   day flight     n
   <int> <int> <int>  <int> <int>
 1  2013     1     1      1     2
 2  2013     1     1      3     2
 3  2013     1     1      4     2
 4  2013     1     1     11     3
 5  2013     1     1     15     2
 6  2013     1     1     21     2
 7  2013     1     1     27     4
 8  2013     1     1     31     2
 9  2013     1     1     32     2
10  2013     1     1     35     2
# ... with 29,758 more rows

Mutating Joins

Mutating Joins permite combinar variables de dos tablas. Primero hace un match entre sus dos campos llaves y posteriormente hace una relación 1 a 1.

De la tabla flights vamos a utilizar un conjunto de variables:

flights2 <- flights %>%
  select(year:day, hour, origin, dest, tailnum, carrier)
flights2

# A tibble: 336,776 x 8
    year month   day  hour origin dest  tailnum carrier
   <int> <int> <int> <dbl> <chr>  <chr> <chr>   <chr>  
 1  2013     1     1     5 EWR    IAH   N14228  UA     
 2  2013     1     1     5 LGA    IAH   N24211  UA     
 3  2013     1     1     5 JFK    MIA   N619AA  AA     
 4  2013     1     1     5 JFK    BQN   N804JB  B6     
 5  2013     1     1     6 LGA    ATL   N668DN  DL     
 6  2013     1     1     5 EWR    ORD   N39463  UA     
 7  2013     1     1     6 EWR    FLL   N516JB  B6     
 8  2013     1     1     6 LGA    IAD   N829AS  EV     
 9  2013     1     1     6 JFK    MCO   N593JB  B6     
10  2013     1     1     6 LGA    ORD   N3ALAA  AA     
# ... with 336,766 more rows

Imagine que queremos agregar el nombre completo de la aerolinea a la nueva tabla flights2. Podemos utilizar un left_join()

flights2 %>%
  select(-origin, -dest) %>%
  left_join(airlines, by = "carrier")

# A tibble: 336,776 x 7
    year month   day  hour tailnum carrier name                    
   <int> <int> <int> <dbl> <chr>   <chr>   <chr>                   
 1  2013     1     1     5 N14228  UA      United Air Lines Inc.   
 2  2013     1     1     5 N24211  UA      United Air Lines Inc.   
 3  2013     1     1     5 N619AA  AA      American Airlines Inc.  
 4  2013     1     1     5 N804JB  B6      JetBlue Airways         
 5  2013     1     1     6 N668DN  DL      Delta Air Lines Inc.    
 6  2013     1     1     5 N39463  UA      United Air Lines Inc.   
 7  2013     1     1     6 N516JB  B6      JetBlue Airways         
 8  2013     1     1     6 N829AS  EV      ExpressJet Airlines Inc.
 9  2013     1     1     6 N593JB  B6      JetBlue Airways         
10  2013     1     1     6 N3ALAA  AA      American Airlines Inc.  
# ... with 336,766 more rows
…
left_join(x, y, by = key)

right_join(x, y, by = key)

full_join(x, y, by = key)

inner_join(x, y, by = key)

por default el argumento by = NULLlo que quiere decir que el join va a tomar como campos clave todos los campos en x y en y. Por ejemplo:

flights2 %>% 
  left_join(weather)

# A tibble: 336,776 x 18
    year month   day  hour origin dest  tailnum carrier  temp  dewp humid
   <int> <int> <int> <dbl> <chr>  <chr> <chr>   <chr>   <dbl> <dbl> <dbl>
 1  2013     1     1     5 EWR    IAH   N14228  UA       39.0  28.0  64.4
 2  2013     1     1     5 LGA    IAH   N24211  UA       39.9  25.0  54.8
 3  2013     1     1     5 JFK    MIA   N619AA  AA       39.0  27.0  61.6
 4  2013     1     1     5 JFK    BQN   N804JB  B6       39.0  27.0  61.6
 5  2013     1     1     6 LGA    ATL   N668DN  DL       39.9  25.0  54.8
 6  2013     1     1     5 EWR    ORD   N39463  UA       39.0  28.0  64.4
 7  2013     1     1     6 EWR    FLL   N516JB  B6       37.9  28.0  67.2
 8  2013     1     1     6 LGA    IAD   N829AS  EV       39.9  25.0  54.8
 9  2013     1     1     6 JFK    MCO   N593JB  B6       37.9  27.0  64.3
10  2013     1     1     6 LGA    ORD   N3ALAA  AA       39.9  25.0  54.8
# ... with 336,766 more rows, and 7 more variables: wind_dir <dbl>,
#   wind_speed <dbl>, wind_gust <dbl>, precip <dbl>, pressure <dbl>,
#   visib <dbl>, time_hour <dttm>

Operaciones con dplyr

Todo el proceso para juntar las diferentes bases de datos se ve así:

flights_db = left_join(flights, planes) %>%
  left_join(weather) %>%
  left_join(airlines) %>%
  left_join(airports)
  
flights_db

# A tibble: 336,776 x 43
    year month   day dep_time sched_dep_time dep_delay arr_time sched_arr_time
   <int> <int> <int>    <int>          <int>     <dbl>    <int>          <int>
 1  2013     1     1      517            515         2      830            819
 2  2013     1     1      533            529         4      850            830
 3  2013     1     1      542            540         2      923            850
 4  2013     1     1      544            545        -1     1004           1022
 5  2013     1     1      554            600        -6      812            837
 6  2013     1     1      554            558        -4      740            728
 7  2013     1     1      555            600        -5      913            854
 8  2013     1     1      557            600        -3      709            723
 9  2013     1     1      557            600        -3      838            846
10  2013     1     1      558            600        -2      753            745
# ... with 336,766 more rows, and 35 more variables: arr_delay <dbl>,
#   carrier <chr>, flight <int>, tailnum <chr>, origin <chr>, dest <chr>,
#   air_time <dbl>, distance <dbl>, hour <dbl>, minute <dbl>, time_hour <dttm>,
#   type <chr>, manufacturer <chr>, model <chr>, engines <int>, seats <int>,
#   speed <int>, engine <chr>, temp <dbl>, dewp <dbl>, humid <dbl>,
#   wind_dir <dbl>, wind_speed <dbl>, wind_gust <dbl>, precip <dbl>,
#   pressure <dbl>, visib <dbl>, name <chr>, faa <chr>, lat <dbl>, ...
…
mutate: se utiliza para crear nuevas variables o columnas utilizando operaciones lógicas o ariméticas

summarise: resume un conjunto de variables utilizando estadísticos como la media, mediana, suma, etc

Agregar y agrupar con group_by & summarise

Ya que tenemos nuestra base de datos, ahora podemos trabajar para computar, por ejemplo, el promedio y la desviación estándar de la combinación origin, dest. Para esto usaremos la función group_by() y summarise(). La variables de interes es el tiempo de vuelo airtime.

flights_db %>%
  group_by(origin, dest) %>%
  summarise(mean_time = mean(air_time, na.rm = T),
            sd_time = sd(air_time, na.rm = T))

# A tibble: 224 x 4
# Groups:   origin [3]
   origin dest  mean_time sd_time
   <chr>  <chr>     <dbl>   <dbl>
 1 EWR    ALB        31.8    3.08
 2 EWR    ANC       413.    14.7 
 3 EWR    ATL       112.     9.99
 4 EWR    AUS       211.    17.9 
 5 EWR    AVL        89.8    7.45
 6 EWR    BDL        25.5    3.29
 7 EWR    BNA       115.    10.9 
 8 EWR    BOS        40.3    4.92
 9 EWR    BQN       196.     8.88
10 EWR    BTV        46.3    3.67
# ... with 214 more rows

Si quisieramos hacer una comparación por aerolinea, simplemente agregamos la variable carrier dentro de group_by

flights_db %>%
  group_by(carrier, origin, dest) %>%
  summarise(mean_time = mean(air_time, na.rm = T),
            sd_time = sd(air_time, na.rm = T))

# A tibble: 439 x 5
# Groups:   carrier, origin [35]
   carrier origin dest  mean_time sd_time
   <chr>   <chr>  <chr>     <dbl>   <dbl>
 1 9E      EWR    ATL       111      5.16
 2 9E      EWR    CVG        95.3    8.15
 3 9E      EWR    DTW        85.6    7.63
 4 9E      EWR    MSP       157.    12.5 
 5 9E      JFK    ATL       121.     9.72
 6 9E      JFK    AUS       222      4.24
 7 9E      JFK    BNA       115.    11.1 
 8 9E      JFK    BOS        38.9    5.27
 9 9E      JFK    BUF        57.2    4.82
10 9E      JFK    BWI        38.8    4.29
# ... with 429 more rows

También podemos agregar más computos dentro de summarise con otras variables, por ejemplo, la velocidad del viento wind_speed:

flights_db %>%
  group_by(carrier, origin, dest) %>%
  summarise(mean_time = mean(air_time, na.rm = T),
            sd_time = sd(air_time, na.rm = T),
            mean_wind = mean(wind_speed, na.rm = T),
            max_wind = max(wind_speed))

# A tibble: 439 x 7
# Groups:   carrier, origin [35]
   carrier origin dest  mean_time sd_time mean_wind max_wind
   <chr>   <chr>  <chr>     <dbl>   <dbl>     <dbl>    <dbl>
 1 9E      EWR    ATL       111      5.16      8.34     11.5
 2 9E      EWR    CVG        95.3    8.15     10.4      NA  
 3 9E      EWR    DTW        85.6    7.63      9.80     NA  
 4 9E      EWR    MSP       157.    12.5      10.1      NA  
 5 9E      JFK    ATL       121.     9.72     11.4      29.9
 6 9E      JFK    AUS       222      4.24     17.3      21.9
 7 9E      JFK    BNA       115.    11.1      13.9      NA  
 8 9E      JFK    BOS        38.9    5.27     13.5      NA  
 9 9E      JFK    BUF        57.2    4.82     12.7      NA  
10 9E      JFK    BWI        38.8    4.29     12.6      NA  
# ... with 429 more rows
…
<img src="{{< blogdown/postref >}}index_files/figure-html/unnamed-chunk-28-1.png" width="672" />

Filtrar la base de datos con filter

Supongamos que nos interesa sólo el orign ATL podemos filter utilizando conicionantes o con dplyr:

Utilizando condicionantes:

flights_db[flights_db$dest == 'ATL', ]

# A tibble: 17,215 x 43
    year month   day dep_time sched_dep_time dep_delay arr_time sched_arr_time
   <int> <int> <int>    <int>          <int>     <dbl>    <int>          <int>
 1  2013     1     1      554            600        -6      812            837
 2  2013     1     1      600            600         0      837            825
 3  2013     1     1      606            610        -4      837            845
 4  2013     1     1      615            615         0      833            842
 5  2013     1     1      658            700        -2      944            939
 6  2013     1     1      754            759        -5     1039           1041
 7  2013     1     1      807            810        -3     1043           1043
 8  2013     1     1      814            810         4     1047           1030
 9  2013     1     1      830            835        -5     1052           1105
10  2013     1     1      855            859        -4     1143           1145
# ... with 17,205 more rows, and 35 more variables: arr_delay <dbl>,
#   carrier <chr>, flight <int>, tailnum <chr>, origin <chr>, dest <chr>,
#   air_time <dbl>, distance <dbl>, hour <dbl>, minute <dbl>, time_hour <dttm>,
#   type <chr>, manufacturer <chr>, model <chr>, engines <int>, seats <int>,
#   speed <int>, engine <chr>, temp <dbl>, dewp <dbl>, humid <dbl>,
#   wind_dir <dbl>, wind_speed <dbl>, wind_gust <dbl>, precip <dbl>,
#   pressure <dbl>, visib <dbl>, name <chr>, faa <chr>, lat <dbl>, ...

Podemos hacer lo mismo con dplyr:

flights %>% filter(dest == 'ATL')

# A tibble: 17,215 x 19
    year month   day dep_time sched_dep_time dep_delay arr_time sched_arr_time
   <int> <int> <int>    <int>          <int>     <dbl>    <int>          <int>
 1  2013     1     1      554            600        -6      812            837
 2  2013     1     1      600            600         0      837            825
 3  2013     1     1      606            610        -4      837            845
 4  2013     1     1      615            615         0      833            842
 5  2013     1     1      658            700        -2      944            939
 6  2013     1     1      754            759        -5     1039           1041
 7  2013     1     1      807            810        -3     1043           1043
 8  2013     1     1      814            810         4     1047           1030
 9  2013     1     1      830            835        -5     1052           1105
10  2013     1     1      855            859        -4     1143           1145
# ... with 17,205 more rows, and 11 more variables: arr_delay <dbl>,
#   carrier <chr>, flight <int>, tailnum <chr>, origin <chr>, dest <chr>,
#   air_time <dbl>, distance <dbl>, hour <dbl>, minute <dbl>, time_hour <dttm>
…
Podemos hacer filtros más complejos. Suponga ahora que queremos todos los vuelos que fueron a ATL, DTW, AUS y que tuvieron una velocidad de viento wind_speed mayor a \(20\)

#creamos una lista con los criterios de filtrado
destinos = c('ATL', 'DTW', 'AUS')

flights_db %>%
  filter(dest %in% destinos & wind_speed > 20) %>%
  select(origin, dest, wind_speed, air_time, distance)

# A tibble: 1,729 x 5
   origin dest  wind_speed air_time distance
   <chr>  <chr>      <dbl>    <dbl>    <dbl>
 1 EWR    ATL         20.7      121      746
 2 EWR    ATL         24.2      118      746
 3 EWR    AUS         21.9      232     1504
 4 EWR    ATL         21.9      113      746
 5 JFK    ATL         20.7      119      760
 6 JFK    DTW         20.7       88      509
 7 LGA    ATL         23.0      116      762
 8 LGA    ATL         23.0      118      762
 9 LGA    ATL         20.7      121      762
10 LGA    ATL         20.7      115      762
# ... with 1,719 more rows
…
