…
lm_workflow = lm_workflow %>%
  remove_variables() %>% #Remove formula from workflow
  add_recipe(simple_ames)

## Warning: The workflow has no variables preprocessor to remove.

Ahora podemos hacer el ajuste:

lm_fit = fit(lm_workflow, ames)
tidy(lm_fit)

## # A tibble: 35 × 5
##    term                             estimate std.error statistic   p.value
##    <chr>                               <dbl>     <dbl>     <dbl>     <dbl>
##  1 (Intercept)                     -2320382.  101509.    -22.9   1.84e-106
##  2 Gr_Liv_Area                       256327.    6191.     41.4   1.07e-294
##  3 Year_Built                           855.      51.3    16.7   1.22e- 59
##  4 Neighborhood_College_Creek          6361.    3602.      1.77  7.75e-  2
##  5 Neighborhood_Old_Town               1485.    3673.      0.404 6.86e-  1
##  6 Neighborhood_Edwards               -8878.    3342.     -2.66  7.93e-  3
##  7 Neighborhood_Somerset              31390.    4249.      7.39  1.95e- 13
##  8 Neighborhood_Northridge_Heights    99358.    4436.     22.4   1.32e-102
##  9 Neighborhood_Gilbert              -18504.    4107.     -4.51  6.89e-  6
## 10 Neighborhood_Sawyer                 -983.    3660.     -0.268 7.88e-  1
## # … with 25 more rows
…
#Imprimir los resultados del modelo
lm_fit %>%
  extract_fit_parsnip() %>%
  tidy()

## # A tibble: 35 × 5
##    term                             estimate std.error statistic   p.value
##    <chr>                               <dbl>     <dbl>     <dbl>     <dbl>
##  1 (Intercept)                     -2320382.  101509.    -22.9   1.84e-106
##  2 Gr_Liv_Area                       256327.    6191.     41.4   1.07e-294
##  3 Year_Built                           855.      51.3    16.7   1.22e- 59
##  4 Neighborhood_College_Creek          6361.    3602.      1.77  7.75e-  2
##  5 Neighborhood_Old_Town               1485.    3673.      0.404 6.86e-  1
##  6 Neighborhood_Edwards               -8878.    3342.     -2.66  7.93e-  3
##  7 Neighborhood_Somerset              31390.    4249.      7.39  1.95e- 13
##  8 Neighborhood_Northridge_Heights    99358.    4436.     22.4   1.32e-102
##  9 Neighborhood_Gilbert              -18504.    4107.     -4.51  6.89e-  6
## 10 Neighborhood_Sawyer                 -983.    3660.     -0.268 7.88e-  1
## # … with 25 more rows
…
#Imprimir los resultados del modelo
lm_fit %>%
  extract_fit_parsnip() %>%
  tidy()

## # A tibble: 37 × 5
##    term                            estimate std.error statistic   p.value
##    <chr>                              <dbl>     <dbl>     <dbl>     <dbl>
##  1 (Intercept)                    -1157772.    90871.   -12.7   3.24e- 36
##  2 NeighborhoodCollege_Creek         18664.     3221.     5.80  7.56e-  9
##  3 NeighborhoodOld_Town               8195.     3283.     2.50  1.26e-  2
##  4 NeighborhoodEdwards               -6779.     2959.    -2.29  2.20e-  2
##  5 NeighborhoodSomerset              49252.     3815.    12.9   4.18e- 37
##  6 NeighborhoodNorthridge_Heights    97244.     3954.    24.6   1.98e-121
##  7 NeighborhoodGilbert               10976.     3801.     2.89  3.91e-  3
##  8 NeighborhoodSawyer                -1601.     3229.    -0.496 6.20e-  1
##  9 NeighborhoodNorthwest_Ames         1111.     3525.     0.315 7.53e-  1
## 10 NeighborhoodSawyer_West            7342.     3787.     1.94  5.26e-  2
## # … with 27 more rows
…
#tidy the results
ridge_fit %>%
  pull_workflow_fit() %>%
  tidy()

## Warning: `pull_workflow_fit()` was deprecated in workflows 0.2.3.
## Please use `extract_fit_parsnip()` instead.

## Loaded glmnet 4.1-4

## # A tibble: 40 × 3
##    term           estimate penalty
##    <chr>             <dbl>   <dbl>
##  1 (Intercept)    5.22         0.1
##  2 Longitude     -0.0120       0.1
##  3 Latitude       0.0167       0.1
##  4 Lot_Area       0.0120       0.1
##  5 Year_Sold      0.00192      0.1
##  6 Lot_Frontage   0.00491      0.1
##  7 Year_Built     0.0401       0.1
##  8 Gr_Liv_Area    0.0589       0.1
##  9 Bedroom_AbvGr  0.000349     0.1
## 10 Garage_Area    0.0373       0.1
## # … with 30 more rows
…
doParallel::registerDoParallel()

set.seed(1234)
ridge_grid <- tune_grid(ames_wflow %>%
                          remove_model() %>% #Remove previous models
                          add_model(tune_spec),
                        resamples = ames_cv,
                        grid = lambda_grid)

Ahore, veamos el desempeño del modelo:

ridge_grid %>%
  collect_metrics()

## # A tibble: 100 × 7
##     penalty .metric .estimator   mean     n std_err .config              
##       <dbl> <chr>   <chr>       <dbl> <int>   <dbl> <chr>                
##  1 1   e-10 rmse    standard   0.0894    10 0.00501 Preprocessor1_Model01
##  2 1   e-10 rsq     standard   0.785     10 0.0131  Preprocessor1_Model01
##  3 1.60e-10 rmse    standard   0.0894    10 0.00501 Preprocessor1_Model02
##  4 1.60e-10 rsq     standard   0.785     10 0.0131  Preprocessor1_Model02
##  5 2.56e-10 rmse    standard   0.0894    10 0.00501 Preprocessor1_Model03
##  6 2.56e-10 rsq     standard   0.785     10 0.0131  Preprocessor1_Model03
##  7 4.09e-10 rmse    standard   0.0894    10 0.00501 Preprocessor1_Model04
##  8 4.09e-10 rsq     standard   0.785     10 0.0131  Preprocessor1_Model04
##  9 6.55e-10 rmse    standard   0.0894    10 0.00501 Preprocessor1_Model05
## 10 6.55e-10 rsq     standard   0.785     10 0.0131  Preprocessor1_Model05
## # … with 90 more rows
…
doParallel::registerDoParallel()

#Fit the Model
set.seed(1234)
lasso_grid <- tune_grid(ames_wflow %>%
                          remove_model() %>% #Remove previous models
                          add_model(tune_spec),
                        resamples = ames_cv,
                        grid = lambda_grid)

#Collect Metrics
lasso_grid %>%
  collect_metrics()

## # A tibble: 100 × 7
##     penalty .metric .estimator   mean     n std_err .config              
##       <dbl> <chr>   <chr>       <dbl> <int>   <dbl> <chr>                
##  1 1   e-10 rmse    standard   0.0895    10 0.00517 Preprocessor1_Model01
##  2 1   e-10 rsq     standard   0.785     10 0.0146  Preprocessor1_Model01
##  3 1.60e-10 rmse    standard   0.0895    10 0.00517 Preprocessor1_Model02
##  4 1.60e-10 rsq     standard   0.785     10 0.0146  Preprocessor1_Model02
##  5 2.56e-10 rmse    standard   0.0895    10 0.00517 Preprocessor1_Model03
##  6 2.56e-10 rsq     standard   0.785     10 0.0146  Preprocessor1_Model03
##  7 4.09e-10 rmse    standard   0.0895    10 0.00517 Preprocessor1_Model04
##  8 4.09e-10 rsq     standard   0.785     10 0.0146  Preprocessor1_Model04
##  9 6.55e-10 rmse    standard   0.0895    10 0.00517 Preprocessor1_Model05
## 10 6.55e-10 rsq     standard   0.785     10 0.0146  Preprocessor1_Model05
## # … with 90 more rows
…
doParallel::registerDoParallel()

#Fit the Model
set.seed(1234)
enet_grid <- tune_grid(ames_wflow %>%
                          remove_model() %>% #Remove previous models
                          add_model(tune_spec),
                        resamples = ames_cv,
                        grid = lambda_grid)

#Collect Metrics
enet_grid %>%
  collect_metrics()

## # A tibble: 2,000 × 8
##     penalty mixture .metric .estimator   mean     n std_err .config             
##       <dbl>   <dbl> <chr>   <chr>       <dbl> <int>   <dbl> <chr>               
##  1 1   e-10       0 rmse    standard   0.0894    10 0.00501 Preprocessor1_Model…
##  2 1   e-10       0 rsq     standard   0.785     10 0.0131  Preprocessor1_Model…
##  3 1.26e-10       0 rmse    standard   0.0894    10 0.00501 Preprocessor1_Model…
##  4 1.26e-10       0 rsq     standard   0.785     10 0.0131  Preprocessor1_Model…
##  5 1.59e-10       0 rmse    standard   0.0894    10 0.00501 Preprocessor1_Model…
##  6 1.59e-10       0 rsq     standard   0.785     10 0.0131  Preprocessor1_Model…
##  7 2.01e-10       0 rmse    standard   0.0894    10 0.00501 Preprocessor1_Model…
##  8 2.01e-10       0 rsq     standard   0.785     10 0.0131  Preprocessor1_Model…
##  9 2.54e-10       0 rmse    standard   0.0894    10 0.00501 Preprocessor1_Model…
## 10 2.54e-10       0 rsq     standard   0.785     10 0.0131  Preprocessor1_Model…
## # … with 1,990 more rows
…
